[
	{"id": 1, "name": "Samsung Galaxy 6", "price": 5000, "category": "Mobiles"},
	{"id": 2, "name": "One Plus 3", "price": 10000, "category": "Mobiles"},
	{"id": 3, "name": "Macbook Pro", "price": 50000, "category": "Laptops"},
	{"id": 4, "name": "Dell Inspiron", "price": 35000, "category": "Laptops"}
]